<svg xmlns="http://www.w3.org/2000/svg" 
     xmlns:xlink="http://www.w3.org/1999/xlink" 
     xml:lang="en" 
     width="200px" height="205px" viewBox="-1 -1 23 22">

    <path id="heart" stroke="red" fill="transparent" 
          d="M10,6 Q10,0 15,0T20,6Q20,10 15,14              
             T10,20Q10,18 5,14T0,6Q0,0 5,0T10,6Z" />
</svg>